{
	"13899": {
		"prod_id" : 13899,
		"production_version" : 2,
		"ctau_in_mm" : 600,
		"release_info" : "ILCSoft-2019-07-09",
		"polarization" : "polm80",
		"ISR" : 1,
		"BS" : 1,
		"path_to_DSTs" :	"/eos/experiment/clicdp/grid/ilc/prod/clic/3tev/ch1ch1/CLIC_o3_v14/DST/00013899/",
		"cross_section": 13.0,
		"overlay" : 0,
		"Nrawtotal" : 48024,
		"is_signal" : 1
	},
	"13900": {
		"prod_id" : 13900,
		"production_version" : 2,
		"ctau_in_mm" : 600,
		"release_info" : "ILCSoft-2019-07-09",
		"polarization" : "polp80",
		"ISR" : 1,
		"BS" : 1,
		"path_to_DSTs" :	"/eos/experiment/clicdp/grid/ilc/prod/clic/3tev/ch1ch1/CLIC_o3_v14/DST/00013900/",
		"cross_section": 3.9,
		"overlay" : 0,
		"Nrawtotal" : 48024,
		"is_signal" : 1
	},
	"13901": {
		"prod_id" : 13901,
		"production_version" : 2,
		"ctau_in_mm" : 600,
		"release_info" : "ILCSoft-2019-07-09",
		"polarization" : "polm80",
		"ISR" : 1,
		"BS" : 1,
		"path_to_DSTs" :	"/eos/experiment/clicdp/grid/ilc/prod/clic/3tev/ch1ch1/CLIC_o3_v14/DST/00013901/",
		"cross_section":  13.04,
		"overlay" : 1,
		"Nrawtotal" : 48024,
		"is_signal" : 1
	},
	"13902": {
		"prod_id" : 13902,
		"production_version" : 2,
		"ctau_in_mm" : 600,
		"release_info" : "ILCSoft-2019-07-09",
		"polarization" : "polp80",
		"ISR" : 1,
		"BS" : 1,
		"path_to_DSTs" :	"/eos/experiment/clicdp/grid/ilc/prod/clic/3tev/ch1ch1/CLIC_o3_v14/DST/00013902/",
		"cross_section":  3.94,
		"overlay" : 1,
		"Nrawtotal" : 48024,
		"is_signal" : 1
	},


	"14633" : 
{
		"prod_id" : 14633,
		"production_version" : 3,
		"ctau_in_mm" : 180,
		"release_info" : "ILCSoft-2019-07-09",
		"polarization" : "none",
		"ISR" : 1,
		"BS" : 1,
		"path_to_DSTs" :	"/eos/experiment/clicdp/grid/ilc/prod/clic/3tev/ch1ch1/CLIC_o3_v14/DST/00014633/",
		"cross_section":  8.5,
		"overlay" : 0,
		"is_signal" : 1
	},
	
	"14710": {
		"prod_id" : 14710,
		"production_version" : 4,
		"ctau_in_mm" : 6.9,
		"release_info" : "ILCSoft-2019-07-09",
		"polarization" : "polm80",
		"ISR" : 1,
		"BS" : 1,
		"path_to_DSTs" :	"/eos/experiment/clicdp/grid/ilc/prod/clic/3tev/ch1ch1/CLIC_o3_v14/DST/00014710/",
		"cross_section": 13.0,
		"overlay" : 0,
		"Nrawtotal" : 48024,
		"is_signal" : 1
	},
	"14712": {
		"prod_id" : 14712,
		"production_version" : 4,
		"ctau_in_mm" : 6.9,
		"release_info" : "ILCSoft-2019-07-09",
		"polarization" : "polm80",
		"ISR" : 1,
		"BS" : 1,
		"path_to_DSTs" :	"/eos/experiment/clicdp/grid/ilc/prod/clic/3tev/ch1ch1/CLIC_o3_v14/DST/00014712/",
		"cross_section": 13.0,
		"overlay" : 1,
		"Nrawtotal" : 48024,
		"is_signal" : 1
	},
	
	"13903" : {
		"prod_id" : 13903,
		"release_info" : "ILCSoft-2019-07-09",
		"polarization" : "none",
		"ISR" : 1,
		"BS" : 1,
		"path_to_DSTs" :	"/eos/experiment/clicdp/grid/ilc/prod/clic/3tev/ee_nunu/CLIC_o3_v14/DST/00013903/",
		"cross_section": 1.0,
		"overlay" : 1,
		"is_signal" : 0,
		"Nrawtotal" : 120000,
		"ctau_in_mm" : 0
	},
	
	"13904" : {
		"prod_id" : 13904,
		"release_info" : "ILCSoft-2019-07-09",
		"polarization" : "none",
		"ISR" : 1,
		"BS" : 1,
		"path_to_DSTs" :	"/eos/experiment/clicdp/grid/ilc/prod/clic/3tev/ee_nunu/CLIC_o3_v14/DST/00013904/",
		"cross_section": 1.0,
		"overlay" : 1,
		"is_signal" : 0,
		"Nrawtotal" : 120000,
		"ctau_in_mm" : 0
},
	"13927" : {
		"prod_id" : 13927,
		"release_info" : "ILCSoft-2019-07-09",
		"polarization" : "none",
		"ISR" : 1,
		"BS" : 1,
		"path_to_DSTs" :	"/eos/experiment/clicdp/grid/ilc/prod/clic/3tev/ee_nunu/CLIC_o3_v14/DST/00013927/",
		"cross_section": 1.0,
		"overlay" : 1,
		"is_signal" : 0,
		"Nrawtotal" : 120000,
		"ctau_in_mm" : 0
},
	"13930" : {
		"prod_id" : 13930,
		"release_info" : "ILCSoft-2019-07-09",
		"polarization" : "none",
		"ISR" : 1,
		"BS" : 1,
		"path_to_DSTs" :	"/eos/experiment/clicdp/grid/ilc/prod/clic/3tev/ee_nunu/CLIC_o3_v14/DST/00013930/",
		"cross_section": 1.0,
		"overlay" : 1,
		"is_signal" : 0,
		"Nrawtotal" : 120000,
		"ctau_in_mm" : 0
	},
	"13933" : {
		"prod_id" : 13933,
		"release_info" : "ILCSoft-2019-07-09",
		"polarization" : "none",
		"ISR" : 1,
		"BS" : 1,
		"path_to_DSTs" :	"/eos/experiment/clicdp/grid/ilc/prod/clic/3tev/ee_nunu/CLIC_o3_v14/DST/00013933/",
		"cross_section": 1.0,
		"overlay" : 1,
		"is_signal" : 0,
		"Nrawtotal" : 120000,
		"ctau_in_mm" : 0
	},
	"13936" : {
		"prod_id" : 13936,
		"release_info" : "ILCSoft-2019-07-09",
		"polarization" : "none",
		"ISR" : 1,
		"BS" : 1,
		"path_to_DSTs" :	"/eos/experiment/clicdp/grid/ilc/prod/clic/3tev/ee_nunu/CLIC_o3_v14/DST/00013936/",
		"cross_section": 1.0,
		"overlay" : 1,
		"is_signal" : 0,
		"Nrawtotal" : 120000,
		"ctau_in_mm" : 0
	},
	"13939" : {
		"prod_id" : 13939,
		"release_info" : "ILCSoft-2019-07-09",
		"polarization" : "none",
		"ISR" : 1,
		"BS" : 1,
		"path_to_DSTs" :	"/eos/experiment/clicdp/grid/ilc/prod/clic/3tev/ee_nunu/CLIC_o3_v14/DST/00013939/",
		"cross_section": 1.0,
		"overlay" : 1,
		"is_signal" : 0,
		"Nrawtotal" : 120000,
		"ctau_in_mm" : 0
	},
	"13942" : {
		"prod_id" : 13942,
		"release_info" : "ILCSoft-2019-07-09",
		"polarization" : "none",
		"ISR" : 1,
		"BS" : 1,
		"path_to_DSTs" :	"/eos/experiment/clicdp/grid/ilc/prod/clic/3tev/ee_nunu/CLIC_o3_v14/DST/00013942/",
		"cross_section": 1.0,
		"overlay" : 1,
		"is_signal" : 0,
		"Nrawtotal" : 120000,
		"ctau_in_mm" : 0
	},
	"13945" : {
		"prod_id" : 13945,
		"release_info" : "ILCSoft-2019-07-09",
		"polarization" : "none",
		"ISR" : 1,
		"BS" : 1,
		"path_to_DSTs" :	"/eos/experiment/clicdp/grid/ilc/prod/clic/3tev/ee_nunu/CLIC_o3_v14/DST/00013945/",
		"cross_section": 1.0,
		"overlay" : 1,
		"is_signal" : 0,
		"Nrawtotal" : 120000,
		"ctau_in_mm" : 0
	},
	"13948" : {
		"prod_id" : 13948,
		"release_info" : "ILCSoft-2019-07-09",
		"polarization" : "none",
		"ISR" : 1,
		"BS" : 1,
		"path_to_DSTs" :	"/eos/experiment/clicdp/grid/ilc/prod/clic/3tev/ee_nunu/CLIC_o3_v14/DST/00013948/",
		"cross_section": 1.0,
		"overlay" : 1,
		"is_signal" : 0,
		"Nrawtotal" : 120000,
		"ctau_in_mm" : 0
	}
}
